/* XPM */
static char * disk_xpm[] = {
"16 16 118 2",
"  	c None",
". 	c #000000",
"+ 	c #B1C5AF",
"@ 	c #B2C6B0",
"# 	c #B7CBB5",
"$ 	c #B9CCB7",
"% 	c #ACC3AA",
"& 	c #657B5E",
"* 	c #5E6655",
"= 	c #5E6656",
"- 	c #5F6757",
"; 	c #BACCB8",
"> 	c #82A57E",
", 	c #912D23",
"' 	c #84A27C",
") 	c #D9CC7E",
"! 	c #81A47D",
"~ 	c #4D5E3D",
"{ 	c #626A5B",
"] 	c #EAE1BD",
"^ 	c #989176",
"/ 	c #303B26",
"( 	c #B8CAB5",
"_ 	c #83A47E",
": 	c #617C5F",
"< 	c #424541",
"[ 	c #161616",
"} 	c #151515",
"| 	c #E9DFBD",
"1 	c #BCAE7D",
"2 	c #7E7764",
"3 	c #ACC1A9",
"4 	c #637C60",
"5 	c #515151",
"6 	c #909090",
"7 	c #E3E3E3",
"8 	c #797979",
"9 	c #EAE1BE",
"0 	c #ACA17A",
"a 	c #84817C",
"b 	c #292E23",
"c 	c #83897C",
"d 	c #43513E",
"e 	c #F1F1F1",
"f 	c #FFFFFF",
"g 	c #868686",
"h 	c #847D64",
"i 	c #2D2D2A",
"j 	c #353535",
"k 	c #484848",
"l 	c #363D2F",
"m 	c #414140",
"n 	c #A2A2A2",
"o 	c #EDEDED",
"p 	c #EBE2BF",
"q 	c #4B4947",
"r 	c #373737",
"s 	c #585858",
"t 	c #999999",
"u 	c #A7A7A7",
"v 	c #3F3F3E",
"w 	c #8E8E8E",
"x 	c #DCDCDC",
"y 	c #D3D3D3",
"z 	c #E8E8E8",
"A 	c #666666",
"B 	c #717171",
"C 	c #BBBBBB",
"D 	c #E0E0E0",
"E 	c #737373",
"F 	c #818181",
"G 	c #B2B2B2",
"H 	c #949494",
"I 	c #1F1F1F",
"J 	c #2E2E2E",
"K 	c #8F8F8F",
"L 	c #B8B8B8",
"M 	c #7B7B7B",
"N 	c #858585",
"O 	c #C5C5C5",
"P 	c #8C8C8C",
"Q 	c #808080",
"R 	c #2A2A2A",
"S 	c #C8C8C8",
"T 	c #686868",
"U 	c #D7D7D7",
"V 	c #EFEFEF",
"W 	c #6F6F6F",
"X 	c #191919",
"Y 	c #3C3C3C",
"Z 	c #6B6B6B",
"` 	c #DEDEDE",
" .	c #4F4F4F",
"..	c #CECECE",
"+.	c #ADADAD",
"@.	c #B4B4B4",
"#.	c #BFBFBF",
"$.	c #F4F4F4",
"%.	c #444343",
"&.	c #8A8A8A",
"*.	c #424241",
"=.	c #ABABAB",
"-.	c #B9B9B9",
";.	c #FEFEFE",
">.	c #F2F2F2",
",.	c #AFAFAF",
"'.	c #5B5B5B",
").	c #383837",
"!.	c #7B7B7A",
"~.	c #6C6B6B",
"{.	c #959595",
"].	c #484847",
"^.	c #50504F",
"/.	c #434343",
"(.	c #4C4C4B",
"_.	c #474745",
":.	c #727271",
"<.	c #6D6C6C",
"    . . . . . . . . . . .       ",
"  . + @ # $ # % & * = = - .     ",
"  . ; > , ' ) ! ~ { ] ^ / .     ",
"  . ( _ : < [ . } | 1 2 = .     ",
"  . 3 4 5 6 7 8 9 0 a b c .     ",
"  . d 5 e f g 9 h i j k l .     ",
"  . m n o n p q r s t u v .     ",
"  . w x y z A f z B C D E .     ",
"  . F u G H f I z J K L M .     ",
"  . N O e P z z Q R H S T .     ",
"  . 5 U f V W X Y Z ` n  ..     ",
"  . v P o ..+.@.#.f $.W %..     ",
"  . &.*.W =.-.;.>.,.'.).!..     ",
"  . ~.{.].^./.'./.(._.:.<..     ",
"    . . . . . . . . . . .       ",
"                                "};
