/* XPM */
static char * unchecked_xpm[] = {
"16 16 3 2",
"  	g None",
". 	g #000000",
"+ 	g #FFFFFF",
"                                ",
"                                ",
"    . . . . . . . . . . . .     ",
"    . + + + + + + + + + + .     ",
"    . + + + + + + + + + + .     ",
"    . + + + + + + + + + + .     ",
"    . + + + + + + + + + + .     ",
"    . + + + + + + + + + + .     ",
"    . + + + + + + + + + + .     ",
"    . + + + + + + + + + + .     ",
"    . + + + + + + + + + + .     ",
"    . + + + + + + + + + + .     ",
"    . + + + + + + + + + + .     ",
"    . . . . . . . . . . . .     ",
"                                ",
"                                "};
